\usetikzlibrary{arrows}
\tikzstyle{process} = [rectangle, minimum width=3cm, minimum height=1cm, text centered, draw=black, fill=orange!30]
\tikzstyle{decision} = [diamond, minimum width=3cm, minimum height=1cm, text centered, draw=black, fill=green!30]

\begin{tikzpicture}[node distance=2cm]
	
\end{tikzpicture}